{
  "count": 129,
  "next": "http://testserver/api/companies/?page=3",
  "previous": "http://testserver/api/companies/",
  "results": [
    {
      "total_products": 0,
      "code": "FXC051",
      "name": "Fixture Company 51"
    },
    {
      "total_products": 0,
      "code": "FXC052",
      "name": "Fixture Company 52"
    },
    {
      "total_products": 0,
      "code": "FXC053",
      "name": "Fixture Company 53"
    },
    {
      "total_products": 0,
      "code": "FXC054",
      "name": "Fixture Company 54"
    },
    {
      "total_products": 0,
      "code": "FXC055",
      "name": "Fixture Company 55"
    },
    {
      "total_products": 0,
      "code": "FXC056",
      "name": "Fixture Company 56"
    },
    {
      "total_products": 0,
      "code": "FXC057",
      "name": "Fixture Company 57"
    },
    {
      "total_products": 0,
      "code": "FXC058",
      "name": "Fixture Company 58"
    },
    {
      "total_products": 0,
      "code": "FXC059",
      "name": "Fixture Company 59"
    },
    {
      "total_products": 0,
      "code": "FXC060",
      "name": "Fixture Company 60"
    },
    {
      "total_products": 0,
      "code": "FXC061",
      "name": "Fixture Company 61"
    },
    {
      "total_products": 0,
      "code": "FXC062",
      "name": "Fixture Company 62"
    },
    {
      "total_products": 0,
      "code": "FXC063",
      "name": "Fixture Company 63"
    },
    {
      "total_products": 0,
      "code": "FXC064",
      "name": "Fixture Company 64"
    },
    {
      "total_products": 0,
      "code": "FXC065",
      "name": "Fixture Company 65"
    },
    {
      "total_products": 0,
      "code": "FXC066",
      "name": "Fixture Company 66"
    },
    {
      "total_products": 0,
      "code": "FXC067",
      "name": "Fixture Company 67"
    },
    {
      "total_products": 0,
      "code": "FXC068",
      "name": "Fixture Company 68"
    },
    {
      "total_products": 0,
      "code": "FXC069",
      "name": "Fixture Company 69"
    },
    {
      "total_products": 0,
      "code": "FXC070",
      "name": "Fixture Company 70"
    },
    {
      "total_products": 0,
      "code": "FXC071",
      "name": "Fixture Company 71"
    },
    {
      "total_products": 0,
      "code": "FXC072",
      "name": "Fixture Company 72"
    },
    {
      "total_products": 0,
      "code": "FXC073",
      "name": "Fixture Company 73"
    },
    {
      "total_products": 0,
      "code": "FXC074",
      "name": "Fixture Company 74"
    },
    {
      "total_products": 0,
      "code": "FXC075",
      "name": "Fixture Company 75"
    },
    {
      "total_products": 0,
      "code": "FXC076",
      "name": "Fixture Company 76"
    },
    {
      "total_products": 0,
      "code": "FXC077",
      "name": "Fixture Company 77"
    },
    {
      "total_products": 0,
      "code": "FXC078",
      "name": "Fixture Company 78"
    },
    {
      "total_products": 0,
      "code": "FXC079",
      "name": "Fixture Company 79"
    },
    {
      "total_products": 0,
      "code": "FXC080",
      "name": "Fixture Company 80"
    },
    {
      "total_products": 0,
      "code": "FXC081",
      "name": "Fixture Company 81"
    },
    {
      "total_products": 0,
      "code": "FXC082",
      "name": "Fixture Company 82"
    },
    {
      "total_products": 0,
      "code": "FXC083",
      "name": "Fixture Company 83"
    },
    {
      "total_products": 0,
      "code": "FXC084",
      "name": "Fixture Company 84"
    },
    {
      "total_products": 0,
      "code": "FXC085",
      "name": "Fixture Company 85"
    },
    {
      "total_products": 0,
      "code": "FXC086",
      "name": "Fixture Company 86"
    },
    {
      "total_products": 0,
      "code": "FXC087",
      "name": "Fixture Company 87"
    },
    {
      "total_products": 0,
      "code": "FXC088",
      "name": "Fixture Company 88"
    },
    {
      "total_products": 0,
      "code": "FXC089",
      "name": "Fixture Company 89"
    },
    {
      "total_products": 0,
      "code": "FXC090",
      "name": "Fixture Company 90"
    },
    {
      "total_products": 0,
      "code": "FXC091",
      "name": "Fixture Company 91"
    },
    {
      "total_products": 0,
      "code": "FXC092",
      "name": "Fixture Company 92"
    },
    {
      "total_products": 0,
      "code": "FXC093",
      "name": "Fixture Company 93"
    },
    {
      "total_products": 0,
      "code": "FXC094",
      "name": "Fixture Company 94"
    },
    {
      "total_products": 0,
      "code": "FXC095",
      "name": "Fixture Company 95"
    },
    {
      "total_products": 0,
      "code": "FXC096",
      "name": "Fixture Company 96"
    },
    {
      "total_products": 0,
      "code": "FXC097",
      "name": "Fixture Company 97"
    },
    {
      "total_products": 0,
      "code": "FXC098",
      "name": "Fixture Company 98"
    },
    {
      "total_products": 0,
      "code": "FXC099",
      "name": "Fixture Company 99"
    },
    {
      "total_products": 0,
      "code": "FXC100",
      "name": "Fixture Company 100"
    }
  ]
}